<?xml version="1.0" encoding="UTF-8"?>
<svg width="256" height="256" version="1.1" viewBox="0 0 67.733 67.733" xmlns="http://www.w3.org/2000/svg" xmlns:xlink="http://www.w3.org/1999/xlink">
    <defs>
        <linearGradient id="linearGradient729" x1="33.492" x2="33.624" y1="10.164" y2="58.102" gradientUnits="userSpaceOnUse">
            <stop stop-color="#cd87de" offset="0"/>
            <stop stop-color="#892ca0" offset="1"/>
        </linearGradient>
    </defs>
    <g fill="url(#linearGradient729)" stroke-linecap="round" stroke-linejoin="round">
        <path d="m10.319 11.319v13.875a1 1 45 0 0 1 1h3.2917a1 1 135 0 0 1-1v-8.5833a1 1 135 0 1 1-1h34.512a1 1 45 0 1 1 1v34.512a1 1 135 0 1-1 1h-34.512a1 1 45 0 1-1-1v-8.5833a1 1 45 0 0-1-1h-3.2917a1 1 135 0 0-1 1v13.875a1 1 45 0 0 1 1h3.2917 41.804a1 1 135 0 0 1-1v-3.2917-41.804a1 1 45 0 0-1-1h-45.096a1 1 135 0 0-1 1z" stroke-width=".21983"/>
        <path d="m28.48 22.622v8.599h-18.161v5.2917h18.161v8.599l15.875-11.245z" stroke-width=".14738"/>
    </g>
</svg>
